@startuml
skinparam ClassAttributeIconSize 0

package DataBase {
    class Client {
        -ClientId: int
        -ClientName: string
        -ClientAddress: string
        -ClientPhone: string
        -ClientEvents: list<Event>
        ---
        +Client()
        +Client(int id, string name, string address, string phone, list<Event> events)
        ---
        +toString(void): string
    }
    
    class Contract{
        -ContractId: int
        -Client: Client
        -ChosenServices: list<Service>
        -ContractStartData: string
        -ContractEndData: string
        -AssignedGroups: list<Group>
        -ContractStatus: string
        ---
        +Contract()
        +Contract(int id, list<Service> services, string start, string end, list<Group> groups, string status)
        ---
        +toString(void): string
    }
    
    class Event {
        -EventId: int
        -EventDate: string
        -Group: Group
        -EventDescription: string
        ---
        +Event()
        +Event(int id, string date, Group group, string description)
        ---
        +toString(void): string
    }
    
    class Group {
        -GroupId: int
        -GroupWorkers: set<Worker>
        ---
        Group()
        Group(int id, set<Worker> workers)
        ---
        +toString(void): string
    }
    
    
    abstract class Job {
        -JobId: int
        -JobName: string
        +CalculatePayment(): double
        +toString()
    }
    
    class SalariedJob {
        -JobSalary: double
        ---
        +SalariedJob()
        +SalariedJob(int id, string name, double salary)
        ---
        +toString(void): string
    }
    
    class HourlyJob {
        -PayRate: double
        -HoursWorked: int
        ---
        +HourlyJob()
        +HourlyJob(int id, string name, double payrate, int hoursworked)
        ---
        +toString(void): string
    }
    
    abstract class ProvidedService {
        -ProvidedServiceId: int
        -ProvidedServiceName: string
        -ProvidedServiceDescription: string
        +toString()
    }
    
    class OneTimeProvidedService {
        -ProvidedServiceCost: double
        ---
        +OneTimeProvidedService()
        +OneTimeProvidedService(int id, string name, string description, double servicecost)
        ---
        +toString(void): string
    }
    
    class MonthlyProvidedService {
        -ProvidedServiceCostPerMonth
        ---
        +OneTimeProvidedService()
        +OneTimeProvidedService(int id, string name, string description, double servicecostpermonth)
        ---
        +toString(void): string
    }
    
    class Worker {
        -WorkerId: int
        -WorkerName: string
        -WorkerJob: Job
        -WorkerPhone: string
        ---
        +Worker()
        +Worker(int id, string name, Job job, string phone)
        ---
        +toString(void): string
    }
    
    class Datacollection {
        +Contracts: list<Contract>
        +ProvidedServices: list<ProvidedService>
        +Groups: list<Group>
        +Workers: list<Worker>
        +Jobs: list<Job>
        +getInstance():
    }

    Client "1" --o "0..*" Event
    Contract "1" o-- "1..*" ProvidedService
    Contract "1" o-- "1..*" Group
    Event "1" o-- "1" Group
    Group "1" o-- "1..*" Worker
    Worker "1" o-- "1" Job

    Datacollection "1" o-- "1..*" Contract
    Datacollection "1" o-- "1..*" OneTimeProvidedService
    Datacollection "1" o-- "1..*" MonthlyProvidedService
    Datacollection "1" o-- "1..*" Group
    Datacollection "1" o-- "1..*" Worker
    Datacollection "1" o-- "1..*" Job

    SalariedJob --|> Job
    HourlyJob --|> Job

    OneTimeProvidedService --|> ProvidedService
    MonthlyProvidedService --|> ProvidedService
}


@enduml
